<?xml version="1.0" encoding="UTF-8" standalone="no"?>
<!-- Created with Inkscape (http://www.inkscape.org/) -->

<svg
   xmlns:dc="http://purl.org/dc/elements/1.1/"
   xmlns:cc="http://creativecommons.org/ns#"
   xmlns:rdf="http://www.w3.org/1999/02/22-rdf-syntax-ns#"
   xmlns:svg="http://www.w3.org/2000/svg"
   xmlns="http://www.w3.org/2000/svg"
   xmlns:sodipodi="http://sodipodi.sourceforge.net/DTD/sodipodi-0.dtd"
   xmlns:inkscape="http://www.inkscape.org/namespaces/inkscape"
   width="150"
   height="150"
   id="svg2"
   version="1.1"
   inkscape:version="0.48.5 r10040"
   sodipodi:docname="Nouveau document 1">
  <defs
     id="defs4" />
  <sodipodi:namedview
     id="base"
     pagecolor="#ffffff"
     bordercolor="#666666"
     borderopacity="1.0"
     inkscape:pageopacity="0.0"
     inkscape:pageshadow="2"
     inkscape:zoom="1.979899"
     inkscape:cx="22.483547"
     inkscape:cy="119.28907"
     inkscape:document-units="px"
     inkscape:current-layer="layer1"
     showgrid="false"
     showguides="true"
     inkscape:guide-bbox="true"
     inkscape:window-width="1366"
     inkscape:window-height="709"
     inkscape:window-x="0"
     inkscape:window-y="27"
     inkscape:window-maximized="1" />
  <metadata
     id="metadata7">
    <rdf:RDF>
      <cc:Work
         rdf:about="">
        <dc:format>image/svg+xml</dc:format>
        <dc:type
           rdf:resource="http://purl.org/dc/dcmitype/StillImage" />
        <dc:title></dc:title>
      </cc:Work>
    </rdf:RDF>
  </metadata>
  <g
     inkscape:label="Calque 1"
     inkscape:groupmode="layer"
     id="layer1"
     transform="translate(0,-902.36218)">
    <g
       id="g2994"
       transform="matrix(0.29317622,0,0,0.29317622,0.0213996,903.02567)">
      <path
         id="path2996"
         d="m 280.01,464.008 h -48 c -4.422,0 -8,3.578 -8,8 v 8 c 0,17.648 14.352,32 32,32 17.648,0 32,-14.352 32,-32 v -8 c 0,-4.422 -3.578,-8 -8,-8 z"
         style="fill:#868491"
         inkscape:connector-curvature="0" />
    </g>
    <g
       id="g2998"
       transform="matrix(0.29317622,0,0,0.29317622,0.0213996,903.02567)">
      <path
         id="path3000"
         d="M 256.002,464.008 H 232.01 c -4.422,0 -8,3.578 -8,8 v 8 c 0,17.646 14.347,31.995 31.992,31.999 l 0,-47.999 0,0 z"
         style="fill:#5c546a"
         inkscape:connector-curvature="0" />
    </g>
    <g
       id="g3002"
       transform="matrix(0.29317622,0,0,0.29317622,0.0213996,903.02567)"
       style="fill:#ff0000">
      <path
         id="path3004"
         d="M 381.983,49.895 C 344.592,14.754 295.616,-2.847 244.249,0.375 150.639,6.2 75.014,84.286 72.092,178.149 c -2.156,69.547 34.375,133.578 95.344,167.117 15.156,8.344 24.57,24.367 24.57,41.828 v 60.914 c 0,17.648 14.352,32 32,32 h 64 c 17.648,0 32,-14.352 32,-32 v -60.914 c 0,-17.445 9.484,-33.508 24.766,-41.93 58.742,-32.406 95.234,-94.156 95.234,-161.156 0,-50.578 -21.148,-99.461 -58.023,-134.113 z"
         style="fill:#ff0000"
         inkscape:connector-curvature="0" />
    </g>
    <g
       id="g3028"
       transform="matrix(0.29317622,0,0,0.29317622,0.0213996,903.02567)">
      <path
         id="path3030"
         d="m 190.633,376.008 c 0.851,3.593 1.374,7.293 1.374,11.086 v 60.914 c 0,17.648 14.352,32 32,32 h 64 c 17.648,0 32,-14.352 32,-32 v -60.914 c 0,-3.79 0.527,-7.491 1.384,-11.086 H 190.633 z"
         style="fill:#b4b6bc"
         inkscape:connector-curvature="0" />
    </g>
    <g
       id="g3032"
       transform="matrix(0.29317622,0,0,0.29317622,0.0213996,903.02567)">
      <path
         id="path3034"
         d="m 256.002,376.008 h -65.369 c 0.851,3.593 1.374,7.293 1.374,11.086 v 60.914 c 0,17.648 14.352,32 32,32 h 31.995 v -104 z"
         style="fill:#868491"
         inkscape:connector-curvature="0" />
    </g>
    <g
       id="g3036"
       transform="matrix(0.29317622,0,0,0.29317622,0.0213996,903.02567)">
      <g
         id="g3038">
        <rect
           id="rect3040"
           height="16"
           width="64"
           style="fill:#868491"
           y="400.008"
           x="256.00201" />
      </g>
    </g>
    <g
       id="g3042"
       transform="matrix(0.29317622,0,0,0.29317622,0.0213996,903.02567)">
      <g
         id="g3044">
        <rect
           id="rect3046"
           height="16"
           width="64"
           style="fill:#868491"
           y="432.008"
           x="256.00601" />
      </g>
    </g>
    <g
       id="g3048"
       transform="matrix(0.29317622,0,0,0.29317622,0.0213996,903.02567)">
      <g
         id="g3050">
        <rect
           id="rect3052"
           height="16"
           width="64"
           style="fill:#5c546a"
           y="400.008"
           x="192.002" />
      </g>
    </g>
    <g
       id="g3054"
       transform="matrix(0.29317622,0,0,0.29317622,0.0213996,903.02567)">
      <g
         id="g3056">
        <rect
           id="rect3058"
           height="16"
           width="64"
           style="fill:#5c546a"
           y="432.008"
           x="192.002" />
      </g>
    </g>
    <g
       id="g3060"
       transform="matrix(0.29317622,0,0,0.29317622,0.0213996,903.02567)" />
    <g
       id="g3062"
       transform="matrix(0.29317622,0,0,0.29317622,0.0213996,903.02567)" />
    <g
       id="g3064"
       transform="matrix(0.29317622,0,0,0.29317622,0.0213996,903.02567)" />
    <g
       id="g3066"
       transform="matrix(0.29317622,0,0,0.29317622,0.0213996,903.02567)" />
    <g
       id="g3068"
       transform="matrix(0.29317622,0,0,0.29317622,0.0213996,903.02567)" />
    <g
       id="g3070"
       transform="matrix(0.29317622,0,0,0.29317622,0.0213996,903.02567)" />
    <g
       id="g3072"
       transform="matrix(0.29317622,0,0,0.29317622,0.0213996,903.02567)" />
    <g
       id="g3074"
       transform="matrix(0.29317622,0,0,0.29317622,0.0213996,903.02567)" />
    <g
       id="g3076"
       transform="matrix(0.29317622,0,0,0.29317622,0.0213996,903.02567)" />
    <g
       id="g3078"
       transform="matrix(0.29317622,0,0,0.29317622,0.0213996,903.02567)" />
    <g
       id="g3080"
       transform="matrix(0.29317622,0,0,0.29317622,0.0213996,903.02567)" />
    <g
       id="g3082"
       transform="matrix(0.29317622,0,0,0.29317622,0.0213996,903.02567)" />
    <g
       id="g3084"
       transform="matrix(0.29317622,0,0,0.29317622,0.0213996,903.02567)" />
    <g
       id="g3086"
       transform="matrix(0.29317622,0,0,0.29317622,0.0213996,903.02567)" />
    <g
       id="g3088"
       transform="matrix(0.29317622,0,0,0.29317622,0.0213996,903.02567)" />
    <path
       style="fill:#f9f9f9"
       d="m 73.168186,1000.2171 c -0.87958,-0.1561 -1.30937,-0.3109 -1.95266,-0.7033 -0.48529,-0.296 -4.1615,-3.89483 -14.97204,-14.65689 -7.88086,-7.84552 -15.84037,-15.76392 -17.68781,-17.59645 -3.06359,-3.03886 -3.39179,-3.39814 -3.73208,-4.08544 -0.20521,-0.41446 -0.42922,-1.02357 -0.4978,-1.35357 -0.24715,-1.18917 0.0463,-2.70375 0.73024,-3.76966 0.25396,-0.39576 24.11931,-24.25051 24.35525,-24.34443 0.0361,-0.0144 2.07259,1.98117 4.52548,4.43456 l 4.45979,4.4607 -0.17056,0.56325 c -0.26396,0.87173 -0.31616,2.20549 -0.11903,3.04142 0.41556,1.76211 1.61574,3.30443 3.16102,4.06215 l 0.44251,0.21698 0,10.84408 0,10.84408 -0.42402,0.19121 c -1.14013,0.51412 -2.44744,1.9246 -2.91045,3.14013 -0.35349,0.92803 -0.47673,2.07607 -0.33144,3.08765 0.32872,2.28868 2.16337,4.31062 4.45226,4.90681 0.77733,0.20247 2.2237,0.20444 2.99291,0.004 2.31883,-0.60398 4.04413,-2.51539 4.44429,-4.92372 0.37608,-2.26337 -0.83147,-4.8514 -2.78414,-5.96698 -0.242,-0.13826 -0.44035,-0.32166 -0.44077,-0.40756 -0.042,-8.45929 -0.0361,-21.2407 0.01,-21.24069 0.0344,0 1.88239,1.79412 4.10657,3.98692 l 4.04397,3.98692 -0.19787,0.6725 c -0.28672,0.97447 -0.27515,2.52435 0.026,3.48809 0.56369,1.80373 2.12548,3.36538 3.92829,3.92794 1.063789,0.33195 2.638989,0.32453 3.682659,-0.0174 1.83244,-0.60026 3.33144,-2.1033 3.90006,-3.91058 0.18407,-0.58505 0.2285,-0.96458 0.21993,-1.87851 -0.0128,-1.36754 -0.23915,-2.0895 -1.02622,-3.27342 -1.33765,-2.01211 -4.0364,-3.05294 -6.352049,-2.44979 l -0.61284,0.15963 -4.36849,-4.36268 -4.36849,-4.36267 0.13827,-0.56049 c 0.19526,-0.79144 0.16998,-2.30103 -0.0512,-3.05938 -0.46256,-1.58582 -1.5855,-2.93621 -3.05203,-3.67023 -1.11289,-0.55702 -1.79249,-0.69161 -3.09751,-0.61345 -0.57331,0.0343 -1.18294,0.0893 -1.35474,0.12211 -0.29676,0.0567 -0.53873,-0.1671 -4.84163,-4.47796 l -4.52926,-4.53764 3.80041,-3.74443 c 2.09023,-2.05944 4.01063,-3.88746 4.26755,-4.06227 0.70372,-0.47881 1.76848,-0.77229 2.76062,-0.7609 0.93549,0.0107 1.4753,0.13382 2.32975,0.53122 0.68215,0.31726 0.45068,0.0925 15.362119,14.91396 5.55964,5.52608 12.444505,12.36682 15.299725,15.20166 2.85523,2.83484 5.39415,5.42485 5.64207,5.75558 0.63013,0.84063 0.8938,1.59602 0.9582,2.74522 0.0643,1.14715 -0.19624,2.18005 -0.75791,3.00484 -0.33467,0.49144 -6.9716,7.14362 -26.964164,27.02614 -7.33181,7.29144 -8.73676,8.64294 -9.26677,8.91454 -0.94907,0.4864 -2.26757,0.7173 -3.17569,0.5561 z m 35.541124,-0.3638 c -0.37253,-0.261 -0.37461,-1.0908 -0.003,-1.3269 0.21515,-0.1368 0.77916,-0.088 0.94916,0.082 0.25997,0.26 0.2174,1.0364 -0.0678,1.2362 -0.29033,0.2033 -0.59599,0.2064 -0.87804,0.01 z m 0.92047,-0.1868 c 0.12604,-0.1984 0.0996,-0.8531 -0.0401,-0.9928 -0.20346,-0.2035 -0.78905,-0.1544 -0.9126,0.076 -0.16235,0.3034 -0.12959,0.8031 0.0654,0.9982 0.19317,0.1931 0.7449,0.1423 0.88725,-0.082 z m 0.50134,0.2822 c 0,-0.032 0.14035,-0.2074 0.31188,-0.3904 0.38427,-0.41 0.38703,-0.4639 0.0265,-0.5185 -0.19567,-0.03 -0.1428,-0.048 0.16696,-0.059 l 0.4533,-0.016 -0.32315,0.3681 c -0.39682,0.4519 -0.40243,0.5432 -0.0368,0.5986 0.20104,0.03 0.15452,0.048 -0.15618,0.059 -0.24339,0.01 -0.44252,-0.01 -0.44252,-0.042 z m 1.28382,-0.7232 c -0.002,-0.4581 0.0161,-0.7068 0.0396,-0.5527 0.0348,0.2278 0.10489,0.2862 0.37485,0.3123 0.32264,0.031 0.33246,0.047 0.34584,0.5528 l 0.0138,0.5206 -0.0658,-0.4685 c -0.0578,-0.4116 -0.0999,-0.4725 -0.3462,-0.5009 -0.26558,-0.031 -0.28244,-0.01 -0.31962,0.4685 -0.0226,0.2881 -0.0406,0.1471 -0.0424,-0.3321 z m 1.76547,-0.3123 c 8.3e-4,-0.2863 0.021,-0.3911 0.0449,-0.2329 0.0239,0.1583 0.0233,0.3926 -10e-4,0.5206 -0.0247,0.1281 -0.0443,0 -0.0435,-0.2877 z"
       id="path3240"
       inkscape:connector-curvature="0" />
    <rect
       style="fill:#f9f9f9;fill-opacity:1;stroke:none;opacity:0.04850746"
       id="rect3250"
       width="62.629459"
       height="124.24876"
       x="75.256363"
       y="-9.0990257"
       transform="translate(0,902.36218)" />
  </g>
</svg>
